Ex. 2.3: Building Your Plot
…
---

count: false

.panel1-the_chunk-auto[

```r
*employed_under_150K
```
]
 
.panel2-the_chunk-auto[

```
# A tibble: 80,635 x 10
   Education Sex   Occupation   Age Earnings MaritalStatus Race  FamilySize
   <chr>     <chr> <chr>      <dbl>    <dbl> <chr>         <chr>      <dbl>
 1 Less tha~ F     39: Retai~    20     8000 Never Married White          5
 2 Less tha~ M     8: Comput~    16     4000 Never Married White          5
 3 Less tha~ M     32: Chefs~    27    17350 Never Married Black          2
 4 Less tha~ M     33: Food ~    24    12000 Never Married Hisp~          2
 5 Bachelors M     31: Anima~    62    25480 Never Married White          1
 6 Bachelors F     41: Farmi~    53     6000 Married       White          6
 7 Bachelors M     8: Comput~    52    70200 Married       Asian          6
 8 Less tha~ F     41: Farmi~    16    10520 Never Married Asian          6
 9 Some Col~ F     30: Publi~    31    46000 Married       White          4
10 Less tha~ M     48: Insta~    37    40000 Never Married White          1
# ... with 80,625 more rows, and 2 more variables: FamilyMakeup <chr>,
#   Age_squared <dbl>
```
…
---
count: false

.panel1-the_chunk-auto[

```r
employed_under_150K %>%
* group_by(Age)
```
]
 
.panel2-the_chunk-auto[

```
# A tibble: 80,635 x 10
# Groups:   Age [67]
   Education Sex   Occupation   Age Earnings MaritalStatus Race  FamilySize
   <chr>     <chr> <chr>      <dbl>    <dbl> <chr>         <chr>      <dbl>
 1 Less tha~ F     39: Retai~    20     8000 Never Married White          5
 2 Less tha~ M     8: Comput~    16     4000 Never Married White          5
 3 Less tha~ M     32: Chefs~    27    17350 Never Married Black          2
 4 Less tha~ M     33: Food ~    24    12000 Never Married Hisp~          2
 5 Bachelors M     31: Anima~    62    25480 Never Married White          1
 6 Bachelors F     41: Farmi~    53     6000 Married       White          6
 7 Bachelors M     8: Comput~    52    70200 Married       Asian          6
 8 Less tha~ F     41: Farmi~    16    10520 Never Married Asian          6
 9 Some Col~ F     30: Publi~    31    46000 Married       White          4
10 Less tha~ M     48: Insta~    37    40000 Never Married White          1
# ... with 80,625 more rows, and 2 more variables: FamilyMakeup <chr>,
#   Age_squared <dbl>
```
…
.panel1-the_chunk-auto[

```r
employed_under_150K %>%
  group_by(Age) %>%
* summarise(Median = median(Earnings))
```
]
 
.panel2-the_chunk-auto[

```
# A tibble: 67 x 2
     Age Median
   <dbl>  <dbl>
 1    15   1500
 2    16   2000
 3    17   3000
 4    18   5000
 5    19   8550
 6    20  11000
 7    21  15000
 8    22  17960
 9    23  20800
10    24  24000
# ... with 57 more rows
```
…
*employed_under_150K
```
]
 
.panel2-the_chunk-auto[
<img src="ex2.3_embed_files/figure-html/the_chunk_auto_11_output-1.png" width="576" />

```
# A tibble: 80,635 x 10
   Education Sex   Occupation   Age Earnings MaritalStatus Race  FamilySize
   <chr>     <chr> <chr>      <dbl>    <dbl> <chr>         <chr>      <dbl>
 1 Less tha~ F     39: Retai~    20     8000 Never Married White          5
 2 Less tha~ M     8: Comput~    16     4000 Never Married White          5
 3 Less tha~ M     32: Chefs~    27    17350 Never Married Black          2
 4 Less tha~ M     33: Food ~    24    12000 Never Married Hisp~          2
 5 Bachelors M     31: Anima~    62    25480 Never Married White          1
 6 Bachelors F     41: Farmi~    53     6000 Married       White          6
 7 Bachelors M     8: Comput~    52    70200 Married       Asian          6
 8 Less tha~ F     41: Farmi~    16    10520 Never Married Asian          6
 9 Some Col~ F     30: Publi~    31    46000 Married       White          4
10 Less tha~ M     48: Insta~    37    40000 Never Married White          1
# ... with 80,625 more rows, and 2 more variables: FamilyMakeup <chr>,
#   Age_squared <dbl>
```
…
employed_under_150K %>%
* group_by(Age, Sex)
```
]
 
.panel2-the_chunk-auto[
<img src="ex2.3_embed_files/figure-html/the_chunk_auto_12_output-1.png" width="576" />

```
# A tibble: 80,635 x 10
# Groups:   Age, Sex [134]
   Education Sex   Occupation   Age Earnings MaritalStatus Race  FamilySize
   <chr>     <chr> <chr>      <dbl>    <dbl> <chr>         <chr>      <dbl>
 1 Less tha~ F     39: Retai~    20     8000 Never Married White          5
 2 Less tha~ M     8: Comput~    16     4000 Never Married White          5
 3 Less tha~ M     32: Chefs~    27    17350 Never Married Black          2
 4 Less tha~ M     33: Food ~    24    12000 Never Married Hisp~          2
 5 Bachelors M     31: Anima~    62    25480 Never Married White          1
 6 Bachelors F     41: Farmi~    53     6000 Married       White          6
 7 Bachelors M     8: Comput~    52    70200 Married       Asian          6
 8 Less tha~ F     41: Farmi~    16    10520 Never Married Asian          6
 9 Some Col~ F     30: Publi~    31    46000 Married       White          4
10 Less tha~ M     48: Insta~    37    40000 Never Married White          1
# ... with 80,625 more rows, and 2 more variables: FamilyMakeup <chr>,
#   Age_squared <dbl>
```
…
employed_under_150K %>%
  group_by(Age, Sex) %>%
* summarise(Median = median(Earnings))
```
]
 
.panel2-the_chunk-auto[
<img src="ex2.3_embed_files/figure-html/the_chunk_auto_13_output-1.png" width="576" />

```
# A tibble: 134 x 3
# Groups:   Age [67]
     Age Sex   Median
   <dbl> <chr>  <dbl>
 1    15 F      1500 
 2    15 M      1500 
 3    16 F      2000 
 4    16 M      2000 
 5    17 F      2880 
 6    17 M      3200 
 7    18 F      4600 
 8    18 M      5000 
 9    19 F      7626.
10    19 M     10000 
# ... with 124 more rows
```
…
