Ex. 4.1: Column Chart
…
---

count: false

.panel1-the_chunk-auto[

```r
*employed_under_150K
```
]
 
.panel2-the_chunk-auto[

```
# A tibble: 80,635 x 5
   Earnings Earnings_per_member Sex     Age Education              
      <dbl>               <dbl> <chr> <dbl> <chr>                  
 1     8000               1600  F        20 Less than HS           
 2     4000                800  M        16 Less than HS           
 3    17350               8675  M        27 Less than HS           
 4    12000               6000  M        24 Less than HS           
 5    25480              25480  M        62 Bachelors              
 6     6000               1000  F        53 Bachelors              
 7    70200              11700  M        52 Bachelors              
 8    10520               1753. F        16 Less than HS           
 9    46000              11500  F        31 Some College/Associates
10    40000              40000  M        37 Less than HS           
# … with 80,625 more rows
```
…
---
count: false

.panel1-the_chunk-auto[

```r
employed_under_150K %>%
* group_by(Education, Sex)
```
]
 
.panel2-the_chunk-auto[

```
# A tibble: 80,635 x 5
# Groups:   Education, Sex [12]
   Earnings Earnings_per_member Sex     Age Education              
      <dbl>               <dbl> <chr> <dbl> <chr>                  
 1     8000               1600  F        20 Less than HS           
 2     4000                800  M        16 Less than HS           
 3    17350               8675  M        27 Less than HS           
 4    12000               6000  M        24 Less than HS           
 5    25480              25480  M        62 Bachelors              
 6     6000               1000  F        53 Bachelors              
 7    70200              11700  M        52 Bachelors              
 8    10520               1753. F        16 Less than HS           
 9    46000              11500  F        31 Some College/Associates
10    40000              40000  M        37 Less than HS           
# … with 80,625 more rows
```
…
